{
  "current": {
    "store_code": "GB",
    "newsletter_account_id": "799354109",
    "newsletter_form_id": "",
    "emarsys_store_code": "1E2012992A677F80",
    "gtm_enabled": true,
    "gtm_container_id": "GTM-PDNH9JC",
    "hover-image-enabled": true,
    "brand-show": false,
    "search--show-in-header": true,
    "search--show-articles": true,
    "search--show-pages": true,
    "footer-facebook-follow-url": "https:\/\/www.facebook.com\/crabtreeandevelyn\/",
    "footer-twitter-follow-url": "",
    "footer-instagram-follow-url": "https:\/\/www.instagram.com\/crabtreeandevelyn\/",
    "footer-vimeo-follow-url": "",
    "footer-pinterest-follow-url": "https:\/\/www.pinterest.co.uk\/CrabtreeAndEvelyn\/",
    "footer-youtube-follow-url": "",
    "footer-tumblr-follow-url": "",
    "popup--enabled": false,
    "popup--test-mode": false,
    "popup--image": "",
    "popup--image-url": "",
    "popup--page-content": "",
    "popup--newsletter--enabled": true,
    "popup--newsletter--heading": "Sign up to our mailing list",
    "popup--social-icons--enabled": true,
    "popup--seconds-range": 3,
    "popup--days-range": 7,
    "show_multiple_currencies": false,
    "currency_format": "money_with_currency_format",
    "supported_currencies": "GBP CAD USD AUD EUR CNY",
    "default_currency": "USD",
    "favicon": "",
    "cart--type": "drawer",
    "cart--show-note": false,
    "checkout_header_image": "",
    "checkout_logo_image": "",
    "checkout_logo_position": "left",
    "checkout_logo_size": "medium",
    "checkout_body_background_image": "",
    "checkout_body_background_color": "#fff",
    "checkout_input_background_color_mode": "white",
    "checkout_sidebar_background_image": "",
    "checkout_sidebar_background_color": "#fafafa",
    "checkout_heading_font": "-apple-system, BlinkMacSystemFont, 'Segoe UI', Roboto, Helvetica, Arial, sans-serif, 'Apple Color Emoji', 'Segoe UI Emoji', 'Segoe UI Symbol'",
    "checkout_body_font": "-apple-system, BlinkMacSystemFont, 'Segoe UI', Roboto, Helvetica, Arial, sans-serif, 'Apple Color Emoji', 'Segoe UI Emoji', 'Segoe UI Symbol'",
    "checkout_accent_color": "#000000",
    "checkout_button_color": "#000000",
    "checkout_error_color": "#e32c2b",
    "color--accent": "#f3e9df",
    "color-text": "#3c3c3c",
    "color--alternative": "#ffffff",
    "color-page-bg": "#ffffff",
    "color-panel-bg": "#f2efe8",
    "color-border": "#ebebeb",
    "color-error": "#f66767",
    "color-button": "#ffffff",
    "color-button-bg": "#3c3c3c",
    "color-header-bg": "#ffffff",
    "color-header": "#000000",
    "color-header-cart": "#000000",
    "color-footer-bg": "#ffffff",
    "color-footer": "#000000",
    "color-slider-caption": "#ffffff",
    "color-slider-caption-bg": "rgba(0,0,0,0)",
    "color-slider-button": "#000000",
    "color-slider-button-bg": "#ffffff",
    "color-slider-nav": "#454242",
    "color-grid-sale": "#ffffff",
    "color-grid-sale-bg": "#272727",
    "color-grid-sold-out": "#ffffff",
    "color-grid-sold-out-bg": "#cccccc",
    "color-tabs-accordions": "#ebebeb",
    "color-text-alt": "#999999",
    "color-button-bg-hover": "#777777",
    "color-twitter-tone": "light",
    "color-slider-button-hover-bg": "#474747",
    "color-product-slider-bg": "#ffffff",
    "color-featured-promo-bg": "#f7f7f7",
    "color-social-feed-bg": "#ffffff",
    "color-product-cart-button": "#f7f7f7",
    "color-product-cart-button-bg": "#272727",
    "color-product-cart-button-bg-hover": "#474747",
    "sections": {
      "header": {
        "type": "header",
        "settings": {
          "transparent-menu": false,
          "header-account-show": true,
          "header-menu-center": true,
          "menu": "menu",
          "header-logo-center": true,
          "logo": "",
          "logo-height": 20
        }
      },
      "footer": {
        "type": "footer",
        "blocks": {
          "footer--about": {
            "type": "about",
            "settings": {
              "about-title": "",
              "text": "",
              "footer-payment-options-show": true
            }
          },
          "footer--menu": {
            "type": "menu",
            "settings": {
              "menu-title": "Help & Information",
              "menu": "footer",
              "contact_title": "",
              "contact": ""
            }
          },
          "footer--subscribe": {
            "type": "subscribe",
            "settings": {
              "newsletter--heading": "<p>Sign up to our newsletters and get a 10% off code in your welcome email.<\/p>",
              "subscribe--show-newsletter": true,
              "subscribe--show-social-icons": true
            }
          }
        },
        "block_order": [
          "footer--about",
          "footer--menu",
          "footer--subscribe"
        ],
        "settings": {
        }
      },
      "product": {
        "type": "product",
        "settings": {
          "product-breadcrumbs-show": true,
          "smart_payment_button": true,
          "product-unavailable-form-show": false,
          "product-modal-enabled": false,
          "product-zoom-enabled": true,
          "low-in-stock-amount": 0,
          "cart-form-position": "left",
          "product-size-chart-enabled": false,
          "product-size-chart-option": "size",
          "product-size-chart-page-content": "",
          "delivery_returns": "delivery-and-returns"
        }
      },
      "collection": {
        "type": "collection",
        "settings": {
          "collections-breadcrumbs-show": true,
          "collections-tags-show": true,
          "show-title": false,
          "collections-products-per-row": "4",
          "mobile-items-per-row": "2"
        }
      },
      "1519177052247": {
        "type": "slideshow",
        "disabled": true,
        "blocks": {
          "1586343549469": {
            "type": "image",
            "settings": {
              "image": "shopify:\/\/shop_images\/WK23-BANNER1_1600x_23d06ad7-7451-4362-afbd-5db9b637d62c.png",
              "slide-title": "NEW<br> THE GARDENERS<br> SEED COLLECTION<br>",
              "slide-tagline": "Nature meets nurture for nourished skin.",
              "slide-link-url": "shopify:\/\/collections\/new-in",
              "slide-link-title": "SHOP NEW STUFF",
              "slide-y-pos": "middle",
              "slide-x-pos": "left",
              "slide-text-pos": "text-left"
            }
          },
          "1519177052247-1": {
            "type": "image",
            "settings": {
              "image": "shopify:\/\/shop_images\/WK23-BANNER1_1600x_23d06ad7-7451-4362-afbd-5db9b637d62c.png",
              "slide-title": "BRING THE<br>OUTSIDE IN",
              "slide-tagline": "Uplifting garden scent.<br>Plantable paper box.",
              "slide-link-url": "shopify:\/\/products\/9208",
              "slide-link-title": "SHOP NOW",
              "slide-y-pos": "middle",
              "slide-x-pos": "left",
              "slide-text-pos": "text-left"
            }
          },
          "1519177052247-0": {
            "type": "image",
            "settings": {
              "image": "shopify:\/\/shop_images\/WK23-BANNER1_1600x_23d06ad7-7451-4362-afbd-5db9b637d62c.png",
              "slide-title": "WASH YOUR<br>HANDS",
              "slide-tagline": "Revives with exfoliating grains,<br>softens with seed oils.",
              "slide-link-url": "shopify:\/\/collections\/the-gardeners",
              "slide-link-title": "SHOP THE GARDENERS",
              "slide-y-pos": "middle",
              "slide-x-pos": "right",
              "slide-text-pos": "text-left"
            }
          }
        },
        "block_order": [
          "1586343549469",
          "1519177052247-1",
          "1519177052247-0"
        ],
        "settings": {
          "autoplay": true,
          "transition_style": "default",
          "rotate-frequency-range": 10
        }
      },
      "announcement": {
        "type": "announcement",
        "settings": {
          "enabled": true,
          "home-page-only": false,
          "background-color": "dark",
          "alternative-color": true,
          "icon": "",
          "text": "Free standard delivery on orders over £50",
          "link": ""
        }
      },
      "framework--product-recommendations": {
        "type": "framework--product-recommendations",
        "settings": {
          "product-similar-products-show": true,
          "product-similar-products-heading": "You may also like"
        }
      },
      "1583172507889": {
        "type": "bv-instagram-curations",
        "disabled": true,
        "settings": {
          "title": "@CRABTREEANDEVELYN",
          "display_tag": "brandcarousel"
        }
      },
      "framework--product-social-share": {
        "type": "framework--product-social-share",
        "settings": {
          "product-share-this-show": true,
          "product-share-twitter": true,
          "product-share-facebook": true,
          "product-share-pinterest": true,
          "product-share-tumblr": true
        }
      },
      "framework--product-curations": {
        "type": "framework--product-curations",
        "settings": {
          "enable_curations": true,
          "curations_title": "@CRABTREEANDEVELYN"
        }
      },
      "1584436963433": {
        "type": "framework--featured-grid",
        "blocks": {
          "1584436963433-0": {
            "type": "image",
            "settings": {
              "image": "shopify:\/\/shop_images\/THEGARDENERS_546x_bf34fe73-463d-4720-a6dd-3aa9d61bae7b.jpg",
              "title": "The Gardeners",
              "link-url": "shopify:\/\/collections\/the-gardeners",
              "link-text": "Shop Now"
            }
          },
          "1584436963433-1": {
            "type": "image",
            "settings": {
              "image": "shopify:\/\/shop_images\/THEGARDENERS_546x_bf34fe73-463d-4720-a6dd-3aa9d61bae7b.jpg",
              "title": "Evelyn Rose",
              "link-url": "shopify:\/\/collections\/evelyn-rose",
              "link-text": "Shop now"
            }
          },
          "1585130023085": {
            "type": "image",
            "settings": {
              "image": "shopify:\/\/shop_images\/THEGARDENERS_546x_bf34fe73-463d-4720-a6dd-3aa9d61bae7b.jpg",
              "title": "Crabtree",
              "link-url": "shopify:\/\/collections\/crabtree",
              "link-text": "Shop now"
            }
          },
          "1585130063512": {
            "type": "image",
            "settings": {
              "image": "shopify:\/\/shop_images\/THEGARDENERS_546x_bf34fe73-463d-4720-a6dd-3aa9d61bae7b.jpg",
              "title": "Cult Collection",
              "link-url": "shopify:\/\/collections\/the-archives",
              "link-text": "Shop now"
            }
          }
        },
        "block_order": [
          "1584436963433-0",
          "1584436963433-1",
          "1585130023085",
          "1585130063512"
        ],
        "settings": {
          "background-color": "none",
          "full-width": false,
          "spacing": true,
          "alternative-color": false,
          "text-position": "bottom",
          "width": 4,
          "mobile-width": "2",
          "title": "Shop Collections",
          "subtitle": "",
          "link-url": "",
          "link-text": ""
        }
      },
      "1584441927949": {
        "type": "slideshow",
        "disabled": true,
        "blocks": {
          "1584441927949-0": {
            "type": "image",
            "settings": {
              "image": "",
              "slide-title": "Body Positivity",
              "slide-tagline": "Skincare for the rest of you. Discover everyday body essentials.",
              "slide-link-url": "shopify:\/\/collections\/bodycare",
              "slide-link-title": "Shop bodycare",
              "slide-y-pos": "middle",
              "slide-x-pos": "left",
              "slide-text-pos": "text-left"
            }
          }
        },
        "block_order": [
          "1584441927949-0"
        ],
        "settings": {
          "autoplay": true,
          "transition_style": "default",
          "rotate-frequency-range": 7
        }
      },
      "1584442195290": {
        "type": "featured-collection",
        "settings": {
          "background-color": "none",
          "home-product-slider-collection": "bodycare",
          "max_products": 12
        }
      },
      "1584447369881": {
        "type": "framework--featured-grid",
        "disabled": true,
        "blocks": {
          "1584447369881-0": {
            "type": "image",
            "settings": {
              "image": "",
              "title": "",
              "link-url": "shopify:\/\/collections\/evelyn-rose",
              "link-text": "Evelyn Rose"
            }
          },
          "1584447369881-1": {
            "type": "image",
            "settings": {
              "image": "",
              "title": "",
              "link-url": "shopify:\/\/collections\/crabtree",
              "link-text": "Crabtree"
            }
          },
          "1584447369881-2": {
            "type": "image",
            "settings": {
              "image": "",
              "title": "",
              "link-url": "shopify:\/\/collections\/the-gardeners",
              "link-text": "The Gardeners"
            }
          },
          "1584447369881-3": {
            "type": "image",
            "settings": {
              "image": "",
              "title": "",
              "link-url": "shopify:\/\/collections\/the-archives",
              "link-text": "Cult Collection"
            }
          }
        },
        "block_order": [
          "1584447369881-0",
          "1584447369881-1",
          "1584447369881-2",
          "1584447369881-3"
        ],
        "settings": {
          "background-color": "none",
          "full-width": false,
          "spacing": true,
          "alternative-color": false,
          "text-position": "bottom",
          "width": 4,
          "mobile-width": "2",
          "title": "Shop the collections",
          "subtitle": "",
          "link-url": "",
          "link-text": ""
        }
      },
      "1585128719910": {
        "type": "framework--featured-text",
        "settings": {
          "background-color": "none",
          "heading": "BEAUTY INSPIRED BY EXPLORATION",
          "text": "<p>Made with the best of nature. Fuelled by adventure. We make products to connect you with the world. <strong>#borncuriousgrownwild<\/strong><\/p>"
        }
      },
      "1585130349939": {
        "type": "featured-collection",
        "disabled": true,
        "settings": {
          "background-color": "none",
          "home-product-slider-collection": "mainline",
          "max_products": 12
        }
      },
      "1586172682654": {
        "type": "framework--instagram",
        "disabled": true,
        "settings": {
          "username": "crabtreeandevelyn",
          "access-token": "198468430.c76948d.182e6eb49ff2491c8b0a1968c282eaf2",
          "background-color": "none",
          "full-width": true,
          "spacing": false,
          "rows": 2,
          "columns": 4,
          "heading": "Follow us at @CRABTREEANDEVELYN",
          "footer": ""
        }
      },
      "1590742627886": {
        "type": "framework--featured-content",
        "settings": {
          "full-width": true,
          "background-color": "dark",
          "text-position": "center",
          "text-width": "large",
          "overlap": false,
          "transparent-overlap": true,
          "alternative-color": false,
          "image": "shopify:\/\/shop_images\/hero-1920x700.png",
          "mobile_image": "shopify:\/\/shop_images\/mobile.png",
          "title": "Image with text",
          "description": "<p>Use a combination of image and text to share information about your brand with your customers. Describe a product, share announcements, or welcome customers to your store<\/p>",
          "link-url": "shopify:\/\/collections\/bodycare",
          "link-text": "Test"
        }
      },
      "1594215124900": {
        "type": "review-carousel",
        "blocks": {
          "1594215124900-0": {
            "type": "image",
            "settings": {
              "image": "shopify:\/\/shop_images\/THEGARDENERS_546x_bf34fe73-463d-4720-a6dd-3aa9d61bae7b.jpg",
              "slide-title": "Dummy header",
              "slide-tagline": "Just playing around with some content",
              "slide-link-url": "",
              "slide-link-title": "Link to content",
              "slide-y-pos": "middle",
              "slide-x-pos": "left",
              "slide-text-pos": "text-left"
            }
          },
          "1594215124900-1": {
            "type": "image",
            "settings": {
              "image": "shopify:\/\/shop_images\/THEGARDENERS_546x_bf34fe73-463d-4720-a6dd-3aa9d61bae7b.jpg",
              "slide-title": "Slideshow",
              "slide-tagline": "Introduce your store or campaign with this slideshow section.",
              "slide-link-url": "",
              "slide-link-title": "Link to content",
              "slide-y-pos": "middle",
              "slide-x-pos": "left",
              "slide-text-pos": "text-left"
            }
          }
        },
        "block_order": [
          "1594215124900-0",
          "1594215124900-1"
        ],
        "settings": {
          "autoplay": true,
          "transition_style": "default",
          "rotate-frequency-range": 7
        }
      }
    },
    "content_for_index": [
      "1519177052247",
      "1590742627886",
      "1585128719910",
      "1584442195290",
      "1584436963433",
      "1585130349939",
      "1584447369881",
      "1584441927949",
      "1583172507889",
      "1586172682654",
      "1594215124900"
    ]
  }
}