<svg xmlns="http://www.w3.org/2000/svg" xmlns:xlink="http://www.w3.org/1999/xlink" width="0" height="0" style="position:absolute">
	
		<symbol id="CrabtreeEvelyn_Logo" viewBox="0 0 1190.55 447.02">
			<path d="M77.69 52.07c19.02 0 24.63 16.07 24.33 28.45h21.78c0-21.48-13.1-49.03-46.11-49.03-27.65 0-50.95 18.61-50.95 73.95s23.3 73.95 50.95 73.95c33.01 0 46.11-27.55 46.11-49.03h-21.78c.3 12.38-5.31 28.45-24.33 28.45-25.23 0-28.7-29.73-28.7-53.37s3.47-53.37 28.7-53.37zM263.53 103.15c5.73-8.05 7.39-17.57 7.39-25.93 0-18.31-10.91-42.79-40.71-42.79l-24.69.02v-.02H183.8v142.02h21.72v-57l22.76.08 21.89 56.92h22.38l-24.76-60.78c6-2.63 11.71-6.73 15.74-12.52zm-35.98-.63l-22.03.11V52.72s18.68.09 21.78.09c20.55 0 23.74 16.52 23.74 24.59.01 12.32-6.31 25.12-23.49 25.12zM364.5 34.43l-40.29 142.02h21.94l8.11-29.01h44.79l7.89 29.01h22.27L388.54 34.43H364.5zm-6.22 95.82l18.3-73.62 18.3 73.62h-36.6zM558.41 101.86c10.43-6.48 14.25-19.63 14.25-30.02 0-20.12-11.89-37.27-40.71-37.27l-44.44-.14v142.03l48.56.02c17.51 0 40.32-9.57 40.32-42.55.01-12.98-5.72-25.54-17.98-32.07zm-49.18-48.64l20.15-.09c17.2 0 23.42 8.82 23.42 20.91 0 11.54-6.18 20.74-21.74 20.91h-21.83V53.22zm21 104.2l-21-.04v-45.72h19.99c15.61 0 26.19 5.11 26.19 22.1 0 8.85-4.48 23.66-25.18 23.66zM627.98 53.75h34.85v122.7h21.71V53.75h34.85V34.43h-91.41zM859.14 103.15c5.73-8.05 7.39-17.57 7.39-25.93 0-18.31-10.91-42.79-40.71-42.79l-24.69.02v-.02h-21.72v142.02h21.72v-57l22.76.08 21.89 56.92h22.38l-24.76-60.78c6-2.63 11.71-6.73 15.74-12.52zm-35.98-.63l-22.03.11V52.72s18.68.09 21.78.09c20.55 0 23.73 16.52 23.73 24.59.01 12.32-6.3 25.12-23.48 25.12zM932.24 176.45h81.4v-18.79h-59.68v-44.79h51V94.08h-51V53.27h59.68V34.43h-81.4zM1078.46 176.45h81.4v-18.79h-59.68v-44.79h51V94.08h-51V53.27h59.68V34.43h-81.4zM153.44 349.27h-25.99c-5.49 5.56-11.67 11.83-17.5 17.74l-51.27-51.27a17.762 17.762 0 0 1-5.24-12.64c0-9.86 8.02-17.88 17.88-17.88s17.88 8.02 17.88 17.88h18.51c0-20.07-16.32-36.39-36.39-36.39s-36.39 16.32-36.39 36.39c0 9.72 3.79 18.86 10.66 25.74l5.11 5.11c-3.06 3.02-6.58 6.52-9.3 9.27-7.81 7.91-12.11 18.39-12.11 29.51 0 23.16 18.84 42 42 42 11.22 0 21.76-4.37 29.7-12.3 1.27-1.27 4.64-4.68 9.05-9.14l17.58 17.58h26.18l-30.76-30.76c11.4-11.57 24.08-24.43 30.4-30.84zm-65.55 40.06c-4.44 4.43-10.33 6.88-16.61 6.88-12.95 0-23.49-10.54-23.49-23.49 0-6.22 2.41-12.08 6.77-16.51 2.69-2.72 6.19-6.19 9.22-9.18l33.16 33.16c-4.42 4.47-7.79 7.88-9.05 9.14zM353.48 411.45h81.4v-18.79H375.2v-44.78h51v-18.79h-51v-40.81h59.68v-18.85h-81.4zM538.72 378.28l-.47 2.08h-.3l-.56-2.08-29.28-108.85-4.7-.03h-17.48l40.8 141.89 22.85.16 40.5-142.02h-22.25zM645.48 411.45h81.4v-18.79H667.2v-44.78h51v-18.79h-51v-40.81h59.68v-18.85h-81.4zM814.91 269.43h-21.72v142.02h75.65v-18.79h-53.93zM951.92 333.79l-.43 2.03h-.35l-.57-2.03-28.75-64.36h-22.83l41.15 90.19.22 1.16v50.45h21.77v-50.45l.22-1.16 40.03-90.19H979.4zM1135.97 269.32V372.39h-.39l-.33-1.22-58.41-101.85h-21.33v142.02h21.33V308.28h.22l.5 1.23 58.51 101.83h21.23V269.32z"></path>
		</symbol>
	
		<symbol id="CrabtreeEvelyn_Logo_BLACK" viewBox="0 0 2016.7 133.11">
			<path d="M45.75 18.48c17.08 0 22.12 14.43 21.85 25.55h19.56C87.16 24.74 75.39 0 45.75 0 20.92 0 0 16.71 0 66.41c0 49.7 20.92 66.41 45.75 66.41 29.64 0 41.4-24.74 41.4-44.03H67.6c.27 11.11-4.77 25.55-21.85 25.55-22.66 0-25.77-26.7-25.77-47.92s3.11-47.94 25.77-47.94zM212.63 64.35c5.14-7.23 6.63-15.78 6.63-23.29 0-16.44-9.8-38.42-36.56-38.42l-22.17.01v-.01h-19.5v127.53h19.5V78.99l20.44.07 19.66 51.12h20.1L198.5 75.59c5.38-2.36 10.51-6.04 14.13-11.24zm-32.3-.56l-19.78.1V19.07s16.78.08 19.56.08c18.45 0 21.32 14.83 21.32 22.08-.01 11.06-5.68 22.56-21.1 22.56zM303.3 2.64l-36.17 127.53h19.7l7.28-26.05h40.22l7.08 26.05h20L324.89 2.64H303.3zm-5.58 86.05l16.43-66.11 16.43 66.11h-32.86zM477.43 63.2c9.37-5.82 12.79-17.63 12.79-26.96 0-18.07-10.68-33.47-36.55-33.47l-39.91-.13v127.54l43.6.01c15.73 0 36.21-8.59 36.21-38.2 0-11.65-5.14-22.93-16.14-28.79zm-44.17-43.68l18.09-.08c15.44 0 21.03 7.92 21.03 18.78 0 10.37-5.55 18.63-19.52 18.78h-19.61V19.52zm18.86 93.56l-18.86-.04V71.99h17.95c14.01 0 23.52 4.59 23.52 19.85 0 7.95-4.02 21.24-22.61 21.24zM539.9 19.99h31.29v110.18h19.5V19.99h31.29V2.64H539.9zM747.47 64.35c5.14-7.23 6.63-15.78 6.63-23.29 0-16.44-9.8-38.42-36.56-38.42l-22.17.01v-.01h-19.5v127.53h19.5V78.99l20.44.07 19.66 51.12h20.1L733.33 75.6c5.39-2.37 10.52-6.05 14.14-11.25zm-32.31-.56l-19.78.1V19.07s16.78.08 19.56.08c18.45 0 21.31 14.83 21.31 22.08.01 11.06-5.66 22.56-21.09 22.56zM813.11 130.17h73.1V113.3h-53.6V73.08h45.8V56.21h-45.8V19.56h53.6V2.64h-73.1zM944.41 130.17h73.1V113.3h-53.6V73.08h45.81V56.21h-45.81V19.56h53.6V2.64h-73.1zM1217.34 74.34H1194c-4.93 4.99-10.48 10.62-15.72 15.93l-46.04-46.04c-3.03-3.03-4.7-7.07-4.7-11.35 0-8.85 7.21-16.05 16.06-16.05 8.85 0 16.06 7.2 16.06 16.05h16.62c0-18.02-14.66-32.68-32.68-32.68s-32.68 14.66-32.68 32.68c0 8.73 3.4 16.94 9.57 23.11l4.59 4.58c-2.75 2.71-5.91 5.85-8.35 8.32-7.01 7.1-10.88 16.51-10.88 26.5 0 20.8 16.92 37.71 37.72 37.71 10.07 0 19.54-3.92 26.67-11.04 1.14-1.14 4.16-4.2 8.13-8.21l15.79 15.79h23.51l-27.62-27.62c10.23-10.38 21.62-21.93 27.29-27.68zm-58.87 35.97a20.962 20.962 0 0 1-14.91 6.18c-11.63 0-21.09-9.47-21.09-21.09 0-5.58 2.16-10.85 6.08-14.82 2.42-2.45 5.56-5.56 8.28-8.24l29.77 29.77c-3.96 4-6.99 7.06-8.13 8.2zM1294.9 130.17h73.09V113.3h-53.59V73.08h45.8V56.21h-45.8V19.56h53.59V2.64h-73.09zM1461.24 100.39l-.42 1.87h-.27l-.51-1.87-26.29-97.75-4.22-.03h-15.7l36.64 127.42 20.52.14 36.37-127.53h-19.98zM1557.11 130.17h73.09V113.3h-53.59V73.08h45.8V56.21h-45.8V19.56h53.59V2.64h-73.09zM1709.25 2.64h-19.51v127.53h67.94V113.3h-48.43zM1832.28 60.43l-.39 1.83h-.31l-.51-1.83-25.82-57.79h-20.5l36.95 80.99.2 1.04v45.31h19.55V84.67l.2-1.04 35.95-80.99h-20.65zM1997.55 2.64v92.55h-.34l-.3-1.09-52.45-91.46h-19.16v127.53h19.16V37.63h.19l.45 1.1 52.55 91.44h19.05V2.64z"></path>
		</symbol>
	
		<symbol id="account" viewBox="0 0 24 24">
			<path fill-rule="evenodd" clip-rule="evenodd" d="M7.529 15.793a4.53 4.53 0 0 1 4.44-3.794h.059a4.53 4.53 0 0 1 4.441 3.794L16.998 19H7l.529-3.207zm6.47-4.421a5.531 5.531 0 0 1 3.457 4.258l.72 4.37H5.822l.72-4.37A5.531 5.531 0 0 1 10 11.372a3.5 3.5 0 1 1 3.999 0zm-1.973-.373A2.5 2.5 0 1 0 11.972 6 2.5 2.5 0 0 0 12.026 11z"></path>
		</symbol>
	
		<symbol id="bag" viewBox="0 0 24 24">
			<path fill-rule="evenodd" clip-rule="evenodd" d="M12.38 5.5A2.5 2.5 0 0 0 9.88 8v1H7.13L4.763 20H20L17.63 9h-2.75V8a2.5 2.5 0 0 0-2.5-2.5zm1.5 4.5v3h1v-3h1.943l1.939 9H6l1.939-9H9.88v3h1v-3h3zm0-1V8a1.5 1.5 0 0 0-3 0v1h3z"></path>
		</symbol>
	
		<symbol id="search" viewBox="0 0 24 24">
			<path d="M10.261 7a4.262 4.262 0 1 1 0 8.524 4.262 4.262 0 0 1 0-8.524zm5.262 4.262a5.262 5.262 0 1 0-10.524 0 5.262 5.262 0 0 0 10.524 0zm-1.808 4.163l4.288 4.288.707-.707-4.288-4.288-.707.707z"></path>
		</symbol>
	
		<symbol id="wishlist" viewBox="0 0 24 24">
			<path clip-rule="evenodd" d="M11.381 7.152c.44.5.619.976.619.976s.18-.475.62-.976A3.309 3.309 0 0 1 15.184 6C17.566 6 19 8.285 19 10.168c0 3.157-7 7.965-7 7.965s-7-4.81-7-7.965C5 8.285 6.434 6 8.815 6c1.258 0 2.075.592 2.566 1.152zm.62-.804A4.299 4.299 0 0 0 8.814 5c-1.54 0-2.764.748-3.576 1.747C4.44 7.729 4 8.993 4 10.167c0 1.12.6 2.231 1.287 3.168.712.97 1.64 1.918 2.539 2.738a37.13 37.13 0 0 0 3.52 2.824l.064.044.017.012.004.003.002.001.567-.824-.567.824.567.39.566-.39-.566-.824.566.825.007-.005.017-.012.063-.044c.054-.038.133-.093.232-.165a37.1 37.1 0 0 0 3.29-2.66c.898-.818 1.826-1.766 2.538-2.736C19.4 12.399 20 11.288 20 10.168c0-1.175-.44-2.439-1.239-3.421C17.95 5.748 16.726 5 15.185 5c-1.504 0-2.54.673-3.185 1.348z"></path>
		</symbol>
	
</svg>
